Question. What does the following program print?
#include <iostream>
using std::cout;
using std::endl;
int main()
{
    int y; // declare y
    int x = 1; // initialize x
    int total = 0; // initialize total
        
    while ( x <= 10 ) // loop 10 times
    {
        y = x * x; // perform calculation
        cout << y << endl; // output result
        total += y; // add y to total
        x++; // increment counter x
    } // end while
        
    cout << "Total is " << total << endl; // display result
    return 0; // indicate successful termination
} // end main

Answer. the following program prints sequence of numbers !!!!.
1
4
9
16
25
36
49
64
81
100

!!!And finaly total value "total is 385"....
